,,,,,
Candidate,,,,,
Champ,Visibility,Type,Valeurs,,Note
Gender,Candidate,Select,Male,,
,,,Female,,
First name,Candidate,Text,,,
Last name,Candidate,Text,,,
Adress,Candidate,Text,,,
Country,Candidate,Text,,,
Nationality,Candidate,Text,,,
Passport,Candidate,Checkbox,I hold a valid passport,,
,Candidate,File upload,Upload your passport,,
Curriculum Vitae,Candidate,File upload,Upload your CV,,
Profil picture,Candidate,File upload,Upload your profil picture,,
Current location,Candidate,Text,,,
Date of birth,Candidate,Date,,,
Place of birth,Candidate,Text,,,
Email adress,Candidate,Email,,,
Confirm email,Candidate,Email,,,
Password,Candidate,Password,,,
Confirm password,Candidate,Password,,,
Availability,Candidate,Checkbox,,,
Job sector,Candidate,Select,Commercial,,
,,,Retail sales,,
,,,Creative,,
,,,Technology,,
,,,Marketing & PR,,
,,,Fashion & luxury,,
,,,Management & HR,,
Experience,Candidate,Select,0 - 6 month,,
,,,6 month - 1 year,,
,,,1 - 2 years,,
,,,2+ years,,
,,,5+ years,,
,,,10+ years,,
Short description,Candidate,Text,,,
,,,,,
Notes,Admin,Text,,,
Date created,Admin,Date,,,
Date updated,Admin,Date,,,
Date deleted,Admin,Date,,,
Files,Admin,Files,,,